<?xml version="1.0" encoding="UTF-8" standalone="no"?>
<!DOCTYPE svg PUBLIC "-//W3C//DTD SVG 1.1//EN"
 "http://www.w3.org/Graphics/SVG/1.1/DTD/svg11.dtd">
<!-- Generated by graphviz version 2.50.0 (20211204.2007)
 -->
<!-- Title: G Pages: 1 -->
<svg width="1158pt" height="1091pt"
 viewBox="0.00 0.00 1158.20 1091.20" xmlns="http://www.w3.org/2000/svg" xmlns:xlink="http://www.w3.org/1999/xlink">
<g id="graph0" class="graph" transform="scale(1 1) rotate(0) translate(21.6 1069.6)">
<title>G</title>
<polygon fill="#111111" stroke="transparent" points="-21.6,21.6 -21.6,-1069.6 1136.6,-1069.6 1136.6,21.6 -21.6,21.6"/>
<!-- app/App.tsx -->
<g id="node1" class="node">
<title>app/App.tsx</title>
<path fill="none" stroke="#cfffac" d="M634.83,-64C634.83,-64 558.17,-64 558.17,-64 554.33,-64 550.5,-60.17 550.5,-56.33 550.5,-56.33 550.5,-48.67 550.5,-48.67 550.5,-44.83 554.33,-41 558.17,-41 558.17,-41 634.83,-41 634.83,-41 638.67,-41 642.5,-44.83 642.5,-48.67 642.5,-48.67 642.5,-56.33 642.5,-56.33 642.5,-60.17 638.67,-64 634.83,-64"/>
<text text-anchor="middle" x="596.5" y="-48.8" font-family="Arial" font-size="14.00" fill="#cfffac">app/App.tsx</text>
</g>
<!-- app/pages/DashBoard/index.tsx -->
<g id="node2" class="node">
<title>app/pages/DashBoard/index.tsx</title>
<path fill="none" stroke="#c6c5fe" d="M278.33,-125C278.33,-125 75.67,-125 75.67,-125 71.83,-125 68,-121.17 68,-117.33 68,-117.33 68,-109.67 68,-109.67 68,-105.83 71.83,-102 75.67,-102 75.67,-102 278.33,-102 278.33,-102 282.17,-102 286,-105.83 286,-109.67 286,-109.67 286,-117.33 286,-117.33 286,-121.17 282.17,-125 278.33,-125"/>
<text text-anchor="middle" x="177" y="-109.8" font-family="Arial" font-size="14.00" fill="#c6c5fe">app/pages/DashBoard/index.tsx</text>
</g>
<!-- assets/graph.png -->
<g id="node3" class="node">
<title>assets/graph.png</title>
<path fill="none" stroke="#cfffac" d="M651.83,-146C651.83,-146 541.17,-146 541.17,-146 537.33,-146 533.5,-142.17 533.5,-138.33 533.5,-138.33 533.5,-130.67 533.5,-130.67 533.5,-126.83 537.33,-123 541.17,-123 541.17,-123 651.83,-123 651.83,-123 655.67,-123 659.5,-126.83 659.5,-130.67 659.5,-130.67 659.5,-138.33 659.5,-138.33 659.5,-142.17 655.67,-146 651.83,-146"/>
<text text-anchor="middle" x="596.5" y="-130.8" font-family="Arial" font-size="14.00" fill="#cfffac">assets/graph.png</text>
</g>
<!-- app/pages/DashBoard/index.tsx&#45;&gt;assets/graph.png -->
<g id="edge1" class="edge">
<title>app/pages/DashBoard/index.tsx&#45;&gt;assets/graph.png</title>
<path fill="none" stroke="#757575" d="M286.06,-118.94C360.59,-122.68 457.65,-127.57 523.03,-130.85"/>
<polygon fill="#757575" stroke="#757575" points="523.08,-134.36 533.24,-131.37 523.43,-127.37 523.08,-134.36"/>
</g>
<!-- assets/helpful.jpg -->
<g id="node4" class="node">
<title>assets/helpful.jpg</title>
<path fill="none" stroke="#cfffac" d="M652.83,-105C652.83,-105 540.17,-105 540.17,-105 536.33,-105 532.5,-101.17 532.5,-97.33 532.5,-97.33 532.5,-89.67 532.5,-89.67 532.5,-85.83 536.33,-82 540.17,-82 540.17,-82 652.83,-82 652.83,-82 656.67,-82 660.5,-85.83 660.5,-89.67 660.5,-89.67 660.5,-97.33 660.5,-97.33 660.5,-101.17 656.67,-105 652.83,-105"/>
<text text-anchor="middle" x="596.5" y="-89.8" font-family="Arial" font-size="14.00" fill="#cfffac">assets/helpful.jpg</text>
</g>
<!-- app/pages/DashBoard/index.tsx&#45;&gt;assets/helpful.jpg -->
<g id="edge2" class="edge">
<title>app/pages/DashBoard/index.tsx&#45;&gt;assets/helpful.jpg</title>
<path fill="none" stroke="#757575" d="M286.06,-108.32C360.25,-104.77 456.76,-100.15 522.12,-97.02"/>
<polygon fill="#757575" stroke="#757575" points="522.52,-100.5 532.34,-96.53 522.18,-93.51 522.52,-100.5"/>
</g>
<!-- app/pages/ForgetPassword/index.tsx -->
<g id="node5" class="node">
<title>app/pages/ForgetPassword/index.tsx</title>
<path fill="none" stroke="#c6c5fe" d="M714.83,-269C714.83,-269 478.17,-269 478.17,-269 474.33,-269 470.5,-265.17 470.5,-261.33 470.5,-261.33 470.5,-253.67 470.5,-253.67 470.5,-249.83 474.33,-246 478.17,-246 478.17,-246 714.83,-246 714.83,-246 718.67,-246 722.5,-249.83 722.5,-253.67 722.5,-253.67 722.5,-261.33 722.5,-261.33 722.5,-265.17 718.67,-269 714.83,-269"/>
<text text-anchor="middle" x="596.5" y="-253.8" font-family="Arial" font-size="14.00" fill="#c6c5fe">app/pages/ForgetPassword/index.tsx</text>
</g>
<!-- assets/ambev&#45;logo.svg -->
<g id="node6" class="node">
<title>assets/ambev&#45;logo.svg</title>
<path fill="none" stroke="#cfffac" d="M1051.33,-269C1051.33,-269 902.67,-269 902.67,-269 898.83,-269 895,-265.17 895,-261.33 895,-261.33 895,-253.67 895,-253.67 895,-249.83 898.83,-246 902.67,-246 902.67,-246 1051.33,-246 1051.33,-246 1055.17,-246 1059,-249.83 1059,-253.67 1059,-253.67 1059,-261.33 1059,-261.33 1059,-265.17 1055.17,-269 1051.33,-269"/>
<text text-anchor="middle" x="977" y="-253.8" font-family="Arial" font-size="14.00" fill="#cfffac">assets/ambev&#45;logo.svg</text>
</g>
<!-- app/pages/ForgetPassword/index.tsx&#45;&gt;assets/ambev&#45;logo.svg -->
<g id="edge3" class="edge">
<title>app/pages/ForgetPassword/index.tsx&#45;&gt;assets/ambev&#45;logo.svg</title>
<path fill="none" stroke="#757575" d="M722.75,-257.5C775.6,-257.5 836,-257.5 884.56,-257.5"/>
<polygon fill="#757575" stroke="#757575" points="884.74,-261 894.74,-257.5 884.74,-254 884.74,-261"/>
</g>
<!-- assets/email&#45;icon.png -->
<g id="node7" class="node">
<title>assets/email&#45;icon.png</title>
<path fill="none" stroke="#cfffac" d="M1046.83,-228C1046.83,-228 907.17,-228 907.17,-228 903.33,-228 899.5,-224.17 899.5,-220.33 899.5,-220.33 899.5,-212.67 899.5,-212.67 899.5,-208.83 903.33,-205 907.17,-205 907.17,-205 1046.83,-205 1046.83,-205 1050.67,-205 1054.5,-208.83 1054.5,-212.67 1054.5,-212.67 1054.5,-220.33 1054.5,-220.33 1054.5,-224.17 1050.67,-228 1046.83,-228"/>
<text text-anchor="middle" x="977" y="-212.8" font-family="Arial" font-size="14.00" fill="#cfffac">assets/email&#45;icon.png</text>
</g>
<!-- app/pages/ForgetPassword/index.tsx&#45;&gt;assets/email&#45;icon.png -->
<g id="edge4" class="edge">
<title>app/pages/ForgetPassword/index.tsx&#45;&gt;assets/email&#45;icon.png</title>
<path fill="none" stroke="#757575" d="M712.74,-246C742.17,-242.98 773.77,-239.68 803,-236.5 831.11,-233.44 861.77,-229.95 889.36,-226.74"/>
<polygon fill="#757575" stroke="#757575" points="889.85,-230.21 899.38,-225.58 889.04,-223.26 889.85,-230.21"/>
</g>
<!-- assets/logo&#45;comite.png -->
<g id="node8" class="node">
<title>assets/logo&#45;comite.png</title>
<path fill="none" stroke="#cfffac" d="M1051.83,-310C1051.83,-310 902.17,-310 902.17,-310 898.33,-310 894.5,-306.17 894.5,-302.33 894.5,-302.33 894.5,-294.67 894.5,-294.67 894.5,-290.83 898.33,-287 902.17,-287 902.17,-287 1051.83,-287 1051.83,-287 1055.67,-287 1059.5,-290.83 1059.5,-294.67 1059.5,-294.67 1059.5,-302.33 1059.5,-302.33 1059.5,-306.17 1055.67,-310 1051.83,-310"/>
<text text-anchor="middle" x="977" y="-294.8" font-family="Arial" font-size="14.00" fill="#cfffac">assets/logo&#45;comite.png</text>
</g>
<!-- app/pages/ForgetPassword/index.tsx&#45;&gt;assets/logo&#45;comite.png -->
<g id="edge5" class="edge">
<title>app/pages/ForgetPassword/index.tsx&#45;&gt;assets/logo&#45;comite.png</title>
<path fill="none" stroke="#757575" d="M720.61,-269C747.76,-271.67 776.36,-274.59 803,-277.5 829.4,-280.39 858.04,-283.76 884.28,-286.95"/>
<polygon fill="#757575" stroke="#757575" points="883.85,-290.43 894.2,-288.17 884.7,-283.48 883.85,-290.43"/>
</g>
<!-- app/pages/Fronts/FrontsDetail/index.tsx -->
<g id="node9" class="node">
<title>app/pages/Fronts/FrontsDetail/index.tsx</title>
<path fill="none" stroke="#c6c5fe" d="M303.33,-556C303.33,-556 50.67,-556 50.67,-556 46.83,-556 43,-552.17 43,-548.33 43,-548.33 43,-540.67 43,-540.67 43,-536.83 46.83,-533 50.67,-533 50.67,-533 303.33,-533 303.33,-533 307.17,-533 311,-536.83 311,-540.67 311,-540.67 311,-548.33 311,-548.33 311,-552.17 307.17,-556 303.33,-556"/>
<text text-anchor="middle" x="177" y="-540.8" font-family="Arial" font-size="14.00" fill="#c6c5fe">app/pages/Fronts/FrontsDetail/index.tsx</text>
</g>
<!-- app/pages/Fronts/FrontsDetail/styles.module.css -->
<g id="node10" class="node">
<title>app/pages/Fronts/FrontsDetail/styles.module.css</title>
<path fill="none" stroke="#cfffac" d="M751.83,-556C751.83,-556 441.17,-556 441.17,-556 437.33,-556 433.5,-552.17 433.5,-548.33 433.5,-548.33 433.5,-540.67 433.5,-540.67 433.5,-536.83 437.33,-533 441.17,-533 441.17,-533 751.83,-533 751.83,-533 755.67,-533 759.5,-536.83 759.5,-540.67 759.5,-540.67 759.5,-548.33 759.5,-548.33 759.5,-552.17 755.67,-556 751.83,-556"/>
<text text-anchor="middle" x="596.5" y="-540.8" font-family="Arial" font-size="14.00" fill="#cfffac">app/pages/Fronts/FrontsDetail/styles.module.css</text>
</g>
<!-- app/pages/Fronts/FrontsDetail/index.tsx&#45;&gt;app/pages/Fronts/FrontsDetail/styles.module.css -->
<g id="edge6" class="edge">
<title>app/pages/Fronts/FrontsDetail/index.tsx&#45;&gt;app/pages/Fronts/FrontsDetail/styles.module.css</title>
<path fill="none" stroke="#757575" d="M311.25,-544.5C346.69,-544.5 385.5,-544.5 422.73,-544.5"/>
<polygon fill="#757575" stroke="#757575" points="423.18,-548 433.18,-544.5 423.18,-541 423.18,-548"/>
</g>
<!-- app/shared/MOCK/fronts2.ts -->
<g id="node11" class="node">
<title>app/shared/MOCK/fronts2.ts</title>
<path fill="none" stroke="#cfffac" d="M687.33,-515C687.33,-515 505.67,-515 505.67,-515 501.83,-515 498,-511.17 498,-507.33 498,-507.33 498,-499.67 498,-499.67 498,-495.83 501.83,-492 505.67,-492 505.67,-492 687.33,-492 687.33,-492 691.17,-492 695,-495.83 695,-499.67 695,-499.67 695,-507.33 695,-507.33 695,-511.17 691.17,-515 687.33,-515"/>
<text text-anchor="middle" x="596.5" y="-499.8" font-family="Arial" font-size="14.00" fill="#cfffac">app/shared/MOCK/fronts2.ts</text>
</g>
<!-- app/pages/Fronts/FrontsDetail/index.tsx&#45;&gt;app/shared/MOCK/fronts2.ts -->
<g id="edge7" class="edge">
<title>app/pages/Fronts/FrontsDetail/index.tsx&#45;&gt;app/shared/MOCK/fronts2.ts</title>
<path fill="none" stroke="#757575" d="M293.8,-532.99C325.03,-529.9 358.8,-526.56 390,-523.5 421.71,-520.39 456.17,-517.02 487.65,-513.96"/>
<polygon fill="#757575" stroke="#757575" points="488.15,-517.43 497.76,-512.98 487.47,-510.46 488.15,-517.43"/>
</g>
<!-- app/shared/MOCK/users2.ts -->
<g id="node12" class="node">
<title>app/shared/MOCK/users2.ts</title>
<path fill="none" stroke="#cfffac" d="M687.33,-433C687.33,-433 505.67,-433 505.67,-433 501.83,-433 498,-429.17 498,-425.33 498,-425.33 498,-417.67 498,-417.67 498,-413.83 501.83,-410 505.67,-410 505.67,-410 687.33,-410 687.33,-410 691.17,-410 695,-413.83 695,-417.67 695,-417.67 695,-425.33 695,-425.33 695,-429.17 691.17,-433 687.33,-433"/>
<text text-anchor="middle" x="596.5" y="-417.8" font-family="Arial" font-size="14.00" fill="#cfffac">app/shared/MOCK/users2.ts</text>
</g>
<!-- app/pages/Fronts/FrontsDetail/index.tsx&#45;&gt;app/shared/MOCK/users2.ts -->
<g id="edge8" class="edge">
<title>app/pages/Fronts/FrontsDetail/index.tsx&#45;&gt;app/shared/MOCK/users2.ts</title>
<path fill="none" stroke="#757575" d="M311.13,-543.78C326.54,-539.43 341.27,-532.94 354,-523.5 385.97,-499.8 357.77,-464.85 390,-441.5 417.94,-421.26 453.92,-413.41 487.94,-411.49"/>
<polygon fill="#757575" stroke="#757575" points="488.1,-414.99 497.95,-411.1 487.82,-408 488.1,-414.99"/>
</g>
<!-- app/pages/Fronts/index.tsx -->
<g id="node13" class="node">
<title>app/pages/Fronts/index.tsx</title>
<path fill="none" stroke="#c6c5fe" d="M263.33,-515C263.33,-515 90.67,-515 90.67,-515 86.83,-515 83,-511.17 83,-507.33 83,-507.33 83,-499.67 83,-499.67 83,-495.83 86.83,-492 90.67,-492 90.67,-492 263.33,-492 263.33,-492 267.17,-492 271,-495.83 271,-499.67 271,-499.67 271,-507.33 271,-507.33 271,-511.17 267.17,-515 263.33,-515"/>
<text text-anchor="middle" x="177" y="-499.8" font-family="Arial" font-size="14.00" fill="#c6c5fe">app/pages/Fronts/index.tsx</text>
</g>
<!-- app/pages/Fronts/index.tsx&#45;&gt;app/shared/MOCK/fronts2.ts -->
<g id="edge9" class="edge">
<title>app/pages/Fronts/index.tsx&#45;&gt;app/shared/MOCK/fronts2.ts</title>
<path fill="none" stroke="#757575" d="M271.18,-503.5C335.3,-503.5 420.66,-503.5 487.71,-503.5"/>
<polygon fill="#757575" stroke="#757575" points="487.89,-507 497.89,-503.5 487.89,-500 487.89,-507"/>
</g>
<!-- app/pages/Fronts/index.tsx&#45;&gt;app/shared/MOCK/users2.ts -->
<g id="edge10" class="edge">
<title>app/pages/Fronts/index.tsx&#45;&gt;app/shared/MOCK/users2.ts</title>
<path fill="none" stroke="#757575" d="M271.3,-504.92C299.17,-502.11 328.95,-495.69 354,-482.5 375.46,-471.21 368.42,-452.56 390,-441.5 419.7,-426.28 454.99,-419.48 487.86,-417"/>
<polygon fill="#757575" stroke="#757575" points="488.22,-420.48 497.98,-416.36 487.78,-413.5 488.22,-420.48"/>
</g>
<!-- app/pages/LoginPage/intex.tsx -->
<g id="node14" class="node">
<title>app/pages/LoginPage/intex.tsx</title>
<path fill="none" stroke="#c6c5fe" d="M694.83,-228C694.83,-228 498.17,-228 498.17,-228 494.33,-228 490.5,-224.17 490.5,-220.33 490.5,-220.33 490.5,-212.67 490.5,-212.67 490.5,-208.83 494.33,-205 498.17,-205 498.17,-205 694.83,-205 694.83,-205 698.67,-205 702.5,-208.83 702.5,-212.67 702.5,-212.67 702.5,-220.33 702.5,-220.33 702.5,-224.17 698.67,-228 694.83,-228"/>
<text text-anchor="middle" x="596.5" y="-212.8" font-family="Arial" font-size="14.00" fill="#c6c5fe">app/pages/LoginPage/intex.tsx</text>
</g>
<!-- app/pages/LoginPage/intex.tsx&#45;&gt;assets/ambev&#45;logo.svg -->
<g id="edge12" class="edge">
<title>app/pages/LoginPage/intex.tsx&#45;&gt;assets/ambev&#45;logo.svg</title>
<path fill="none" stroke="#757575" d="M702.62,-226.25C734.85,-229.36 770.4,-232.94 803,-236.5 829.54,-239.4 858.33,-242.8 884.67,-246"/>
<polygon fill="#757575" stroke="#757575" points="884.29,-249.48 894.64,-247.22 885.14,-242.53 884.29,-249.48"/>
</g>
<!-- app/pages/LoginPage/intex.tsx&#45;&gt;assets/email&#45;icon.png -->
<g id="edge13" class="edge">
<title>app/pages/LoginPage/intex.tsx&#45;&gt;assets/email&#45;icon.png</title>
<path fill="none" stroke="#757575" d="M702.68,-216.5C761.38,-216.5 833.61,-216.5 889.07,-216.5"/>
<polygon fill="#757575" stroke="#757575" points="889.23,-220 899.23,-216.5 889.23,-213 889.23,-220"/>
</g>
<!-- app/pages/LoginPage/intex.tsx&#45;&gt;assets/logo&#45;comite.png -->
<g id="edge14" class="edge">
<title>app/pages/LoginPage/intex.tsx&#45;&gt;assets/logo&#45;comite.png</title>
<path fill="none" stroke="#757575" d="M702.62,-211.81C736.2,-214.14 772.54,-220.89 803,-236.5 824.58,-247.56 817.73,-265.85 839,-277.5 852.89,-285.11 868.7,-290.2 884.52,-293.55"/>
<polygon fill="#757575" stroke="#757575" points="883.88,-296.99 894.36,-295.42 885.19,-290.12 883.88,-296.99"/>
</g>
<!-- app/shared/hooks/useAuth.tsx -->
<g id="node15" class="node">
<title>app/shared/hooks/useAuth.tsx</title>
<path fill="none" stroke="#cfffac" d="M1072.83,-187C1072.83,-187 881.17,-187 881.17,-187 877.33,-187 873.5,-183.17 873.5,-179.33 873.5,-179.33 873.5,-171.67 873.5,-171.67 873.5,-167.83 877.33,-164 881.17,-164 881.17,-164 1072.83,-164 1072.83,-164 1076.67,-164 1080.5,-167.83 1080.5,-171.67 1080.5,-171.67 1080.5,-179.33 1080.5,-179.33 1080.5,-183.17 1076.67,-187 1072.83,-187"/>
<text text-anchor="middle" x="977" y="-171.8" font-family="Arial" font-size="14.00" fill="#cfffac">app/shared/hooks/useAuth.tsx</text>
</g>
<!-- app/pages/LoginPage/intex.tsx&#45;&gt;app/shared/hooks/useAuth.tsx -->
<g id="edge11" class="edge">
<title>app/pages/LoginPage/intex.tsx&#45;&gt;app/shared/hooks/useAuth.tsx</title>
<path fill="none" stroke="#757575" d="M702.6,-206.03C734.82,-202.75 770.38,-199.05 803,-195.5 824.02,-193.21 846.46,-190.68 867.98,-188.21"/>
<polygon fill="#757575" stroke="#757575" points="868.6,-191.66 878.13,-187.04 867.8,-184.71 868.6,-191.66"/>
</g>
<!-- app/pages/NewPassword/index.tsx -->
<g id="node16" class="node">
<title>app/pages/NewPassword/index.tsx</title>
<path fill="none" stroke="#c6c5fe" d="M707.83,-310C707.83,-310 485.17,-310 485.17,-310 481.33,-310 477.5,-306.17 477.5,-302.33 477.5,-302.33 477.5,-294.67 477.5,-294.67 477.5,-290.83 481.33,-287 485.17,-287 485.17,-287 707.83,-287 707.83,-287 711.67,-287 715.5,-290.83 715.5,-294.67 715.5,-294.67 715.5,-302.33 715.5,-302.33 715.5,-306.17 711.67,-310 707.83,-310"/>
<text text-anchor="middle" x="596.5" y="-294.8" font-family="Arial" font-size="14.00" fill="#c6c5fe">app/pages/NewPassword/index.tsx</text>
</g>
<!-- app/pages/NewPassword/index.tsx&#45;&gt;assets/ambev&#45;logo.svg -->
<g id="edge15" class="edge">
<title>app/pages/NewPassword/index.tsx&#45;&gt;assets/ambev&#45;logo.svg</title>
<path fill="none" stroke="#757575" d="M712.74,-287C742.17,-283.98 773.77,-280.68 803,-277.5 829.52,-274.61 858.31,-271.34 884.65,-268.29"/>
<polygon fill="#757575" stroke="#757575" points="885.09,-271.76 894.62,-267.13 884.28,-264.81 885.09,-271.76"/>
</g>
<!-- app/pages/NewPassword/index.tsx&#45;&gt;assets/logo&#45;comite.png -->
<g id="edge16" class="edge">
<title>app/pages/NewPassword/index.tsx&#45;&gt;assets/logo&#45;comite.png</title>
<path fill="none" stroke="#757575" d="M715.7,-298.5C769.99,-298.5 833.39,-298.5 884.03,-298.5"/>
<polygon fill="#757575" stroke="#757575" points="884.31,-302 894.31,-298.5 884.31,-295 884.31,-302"/>
</g>
<!-- app/pages/Units/UnitsDetail/index.tsx -->
<g id="node17" class="node">
<title>app/pages/Units/UnitsDetail/index.tsx</title>
<path fill="none" stroke="#c6c5fe" d="M294.33,-433C294.33,-433 59.67,-433 59.67,-433 55.83,-433 52,-429.17 52,-425.33 52,-425.33 52,-417.67 52,-417.67 52,-413.83 55.83,-410 59.67,-410 59.67,-410 294.33,-410 294.33,-410 298.17,-410 302,-413.83 302,-417.67 302,-417.67 302,-425.33 302,-425.33 302,-429.17 298.17,-433 294.33,-433"/>
<text text-anchor="middle" x="177" y="-417.8" font-family="Arial" font-size="14.00" fill="#c6c5fe">app/pages/Units/UnitsDetail/index.tsx</text>
</g>
<!-- app/pages/Units/UnitsDetail/index.tsx&#45;&gt;app/shared/MOCK/users2.ts -->
<g id="edge18" class="edge">
<title>app/pages/Units/UnitsDetail/index.tsx&#45;&gt;app/shared/MOCK/users2.ts</title>
<path fill="none" stroke="#757575" d="M302.13,-421.5C361.09,-421.5 430.88,-421.5 487.6,-421.5"/>
<polygon fill="#757575" stroke="#757575" points="487.67,-425 497.67,-421.5 487.67,-418 487.67,-425"/>
</g>
<!-- app/shared/MOCK/unities2.ts -->
<g id="node18" class="node">
<title>app/shared/MOCK/unities2.ts</title>
<path fill="none" stroke="#cfffac" d="M689.83,-392C689.83,-392 503.17,-392 503.17,-392 499.33,-392 495.5,-388.17 495.5,-384.33 495.5,-384.33 495.5,-376.67 495.5,-376.67 495.5,-372.83 499.33,-369 503.17,-369 503.17,-369 689.83,-369 689.83,-369 693.67,-369 697.5,-372.83 697.5,-376.67 697.5,-376.67 697.5,-384.33 697.5,-384.33 697.5,-388.17 693.67,-392 689.83,-392"/>
<text text-anchor="middle" x="596.5" y="-376.8" font-family="Arial" font-size="14.00" fill="#cfffac">app/shared/MOCK/unities2.ts</text>
</g>
<!-- app/pages/Units/UnitsDetail/index.tsx&#45;&gt;app/shared/MOCK/unities2.ts -->
<g id="edge17" class="edge">
<title>app/pages/Units/UnitsDetail/index.tsx&#45;&gt;app/shared/MOCK/unities2.ts</title>
<path fill="none" stroke="#757575" d="M293.8,-409.99C325.03,-406.9 358.8,-403.56 390,-400.5 420.85,-397.47 454.31,-394.21 485.09,-391.21"/>
<polygon fill="#757575" stroke="#757575" points="485.8,-394.66 495.42,-390.21 485.12,-387.69 485.8,-394.66"/>
</g>
<!-- app/pages/Units/index.tsx -->
<g id="node19" class="node">
<title>app/pages/Units/index.tsx</title>
<path fill="none" stroke="#c6c5fe" d="M258.83,-392C258.83,-392 95.17,-392 95.17,-392 91.33,-392 87.5,-388.17 87.5,-384.33 87.5,-384.33 87.5,-376.67 87.5,-376.67 87.5,-372.83 91.33,-369 95.17,-369 95.17,-369 258.83,-369 258.83,-369 262.67,-369 266.5,-372.83 266.5,-376.67 266.5,-376.67 266.5,-384.33 266.5,-384.33 266.5,-388.17 262.67,-392 258.83,-392"/>
<text text-anchor="middle" x="177" y="-376.8" font-family="Arial" font-size="14.00" fill="#c6c5fe">app/pages/Units/index.tsx</text>
</g>
<!-- app/pages/Units/index.tsx&#45;&gt;app/shared/MOCK/users2.ts -->
<g id="edge20" class="edge">
<title>app/pages/Units/index.tsx&#45;&gt;app/shared/MOCK/users2.ts</title>
<path fill="none" stroke="#757575" d="M266.54,-389.2C331.22,-395.55 419.25,-404.19 487.97,-410.94"/>
<polygon fill="#757575" stroke="#757575" points="487.67,-414.43 497.97,-411.92 488.36,-407.46 487.67,-414.43"/>
</g>
<!-- app/pages/Units/index.tsx&#45;&gt;app/shared/MOCK/unities2.ts -->
<g id="edge19" class="edge">
<title>app/pages/Units/index.tsx&#45;&gt;app/shared/MOCK/unities2.ts</title>
<path fill="none" stroke="#757575" d="M266.54,-380.5C330.29,-380.5 416.73,-380.5 485,-380.5"/>
<polygon fill="#757575" stroke="#757575" points="485.37,-384 495.37,-380.5 485.37,-377 485.37,-384"/>
</g>
<!-- app/pages/Users/UserDetail/index.tsx -->
<g id="node20" class="node">
<title>app/pages/Users/UserDetail/index.tsx</title>
<path fill="none" stroke="#c6c5fe" d="M296.33,-474C296.33,-474 57.67,-474 57.67,-474 53.83,-474 50,-470.17 50,-466.33 50,-466.33 50,-458.67 50,-458.67 50,-454.83 53.83,-451 57.67,-451 57.67,-451 296.33,-451 296.33,-451 300.17,-451 304,-454.83 304,-458.67 304,-458.67 304,-466.33 304,-466.33 304,-470.17 300.17,-474 296.33,-474"/>
<text text-anchor="middle" x="177" y="-458.8" font-family="Arial" font-size="14.00" fill="#c6c5fe">app/pages/Users/UserDetail/index.tsx</text>
</g>
<!-- app/pages/Users/UserDetail/index.tsx&#45;&gt;app/shared/MOCK/fronts2.ts -->
<g id="edge21" class="edge">
<title>app/pages/Users/UserDetail/index.tsx&#45;&gt;app/shared/MOCK/fronts2.ts</title>
<path fill="none" stroke="#757575" d="M295.13,-474C355.55,-479.94 428.76,-487.13 487.77,-492.92"/>
<polygon fill="#757575" stroke="#757575" points="487.57,-496.42 497.86,-493.91 488.25,-489.45 487.57,-496.42"/>
</g>
<!-- app/pages/Users/UserDetail/index.tsx&#45;&gt;app/shared/MOCK/users2.ts -->
<g id="edge23" class="edge">
<title>app/pages/Users/UserDetail/index.tsx&#45;&gt;app/shared/MOCK/users2.ts</title>
<path fill="none" stroke="#757575" d="M293.8,-450.99C325.03,-447.9 358.8,-444.56 390,-441.5 421.71,-438.39 456.17,-435.02 487.65,-431.96"/>
<polygon fill="#757575" stroke="#757575" points="488.15,-435.43 497.76,-430.98 487.47,-428.46 488.15,-435.43"/>
</g>
<!-- app/pages/Users/UserDetail/index.tsx&#45;&gt;app/shared/MOCK/unities2.ts -->
<g id="edge22" class="edge">
<title>app/pages/Users/UserDetail/index.tsx&#45;&gt;app/shared/MOCK/unities2.ts</title>
<path fill="none" stroke="#757575" d="M304.03,-458.87C321.45,-455.14 338.61,-449.6 354,-441.5 375.46,-430.21 368.42,-411.56 390,-400.5 418.86,-385.71 452.98,-378.87 485.04,-376.22"/>
<polygon fill="#757575" stroke="#757575" points="485.64,-379.69 495.37,-375.5 485.15,-372.7 485.64,-379.69"/>
</g>
<!-- app/utils/setPreviewImage.ts -->
<g id="node21" class="node">
<title>app/utils/setPreviewImage.ts</title>
<path fill="none" stroke="#cfffac" d="M687.83,-474C687.83,-474 505.17,-474 505.17,-474 501.33,-474 497.5,-470.17 497.5,-466.33 497.5,-466.33 497.5,-458.67 497.5,-458.67 497.5,-454.83 501.33,-451 505.17,-451 505.17,-451 687.83,-451 687.83,-451 691.67,-451 695.5,-454.83 695.5,-458.67 695.5,-458.67 695.5,-466.33 695.5,-466.33 695.5,-470.17 691.67,-474 687.83,-474"/>
<text text-anchor="middle" x="596.5" y="-458.8" font-family="Arial" font-size="14.00" fill="#cfffac">app/utils/setPreviewImage.ts</text>
</g>
<!-- app/pages/Users/UserDetail/index.tsx&#45;&gt;app/utils/setPreviewImage.ts -->
<g id="edge24" class="edge">
<title>app/pages/Users/UserDetail/index.tsx&#45;&gt;app/utils/setPreviewImage.ts</title>
<path fill="none" stroke="#757575" d="M304.11,-462.5C362.42,-462.5 430.98,-462.5 486.94,-462.5"/>
<polygon fill="#757575" stroke="#757575" points="487.24,-466 497.24,-462.5 487.24,-459 487.24,-466"/>
</g>
<!-- app/pages/Users/index.tsx -->
<g id="node22" class="node">
<title>app/pages/Users/index.tsx</title>
<path fill="none" stroke="#c6c5fe" d="M261.83,-351C261.83,-351 92.17,-351 92.17,-351 88.33,-351 84.5,-347.17 84.5,-343.33 84.5,-343.33 84.5,-335.67 84.5,-335.67 84.5,-331.83 88.33,-328 92.17,-328 92.17,-328 261.83,-328 261.83,-328 265.67,-328 269.5,-331.83 269.5,-335.67 269.5,-335.67 269.5,-343.33 269.5,-343.33 269.5,-347.17 265.67,-351 261.83,-351"/>
<text text-anchor="middle" x="177" y="-335.8" font-family="Arial" font-size="14.00" fill="#c6c5fe">app/pages/Users/index.tsx</text>
</g>
<!-- app/pages/Users/index.tsx&#45;&gt;app/shared/MOCK/users2.ts -->
<g id="edge27" class="edge">
<title>app/pages/Users/index.tsx&#45;&gt;app/shared/MOCK/users2.ts</title>
<path fill="none" stroke="#757575" d="M269.92,-337.34C298.17,-339.92 328.52,-346.18 354,-359.5 375.49,-370.73 368.45,-389.39 390,-400.5 419.68,-415.8 454.96,-422.75 487.84,-425.4"/>
<polygon fill="#757575" stroke="#757575" points="487.74,-428.9 497.95,-426.09 488.21,-421.92 487.74,-428.9"/>
</g>
<!-- app/pages/Users/index.tsx&#45;&gt;app/shared/MOCK/unities2.ts -->
<g id="edge26" class="edge">
<title>app/pages/Users/index.tsx&#45;&gt;app/shared/MOCK/unities2.ts</title>
<path fill="none" stroke="#757575" d="M269.62,-348.5C333.09,-354.73 417.93,-363.06 485.12,-369.66"/>
<polygon fill="#757575" stroke="#757575" points="485.03,-373.17 495.33,-370.66 485.72,-366.2 485.03,-373.17"/>
</g>
<!-- app/pages/Users/styles.module.css -->
<g id="node23" class="node">
<title>app/pages/Users/styles.module.css</title>
<path fill="none" stroke="#cfffac" d="M710.33,-351C710.33,-351 482.67,-351 482.67,-351 478.83,-351 475,-347.17 475,-343.33 475,-343.33 475,-335.67 475,-335.67 475,-331.83 478.83,-328 482.67,-328 482.67,-328 710.33,-328 710.33,-328 714.17,-328 718,-331.83 718,-335.67 718,-335.67 718,-343.33 718,-343.33 718,-347.17 714.17,-351 710.33,-351"/>
<text text-anchor="middle" x="596.5" y="-335.8" font-family="Arial" font-size="14.00" fill="#cfffac">app/pages/Users/styles.module.css</text>
</g>
<!-- app/pages/Users/index.tsx&#45;&gt;app/pages/Users/styles.module.css -->
<g id="edge25" class="edge">
<title>app/pages/Users/index.tsx&#45;&gt;app/pages/Users/styles.module.css</title>
<path fill="none" stroke="#757575" d="M269.62,-339.5C326.81,-339.5 401.34,-339.5 464.69,-339.5"/>
<polygon fill="#757575" stroke="#757575" points="464.76,-343 474.76,-339.5 464.76,-336 464.76,-343"/>
</g>
<!-- app/routes/index.tsx -->
<g id="node24" class="node">
<title>app/routes/index.tsx</title>
<path fill="none" stroke="#c6c5fe" d="M240.83,-228C240.83,-228 113.17,-228 113.17,-228 109.33,-228 105.5,-224.17 105.5,-220.33 105.5,-220.33 105.5,-212.67 105.5,-212.67 105.5,-208.83 109.33,-205 113.17,-205 113.17,-205 240.83,-205 240.83,-205 244.67,-205 248.5,-208.83 248.5,-212.67 248.5,-212.67 248.5,-220.33 248.5,-220.33 248.5,-224.17 244.67,-228 240.83,-228"/>
<text text-anchor="middle" x="177" y="-212.8" font-family="Arial" font-size="14.00" fill="#c6c5fe">app/routes/index.tsx</text>
</g>
<!-- app/routes/index.tsx&#45;&gt;app/pages/LoginPage/intex.tsx -->
<g id="edge28" class="edge">
<title>app/routes/index.tsx&#45;&gt;app/pages/LoginPage/intex.tsx</title>
<path fill="none" stroke="#757575" d="M248.82,-216.5C312.04,-216.5 405.8,-216.5 479.87,-216.5"/>
<polygon fill="#757575" stroke="#757575" points="480.19,-220 490.19,-216.5 480.19,-213 480.19,-220"/>
</g>
<!-- app/shared/components/CrudCardHeader/index.tsx -->
<g id="node25" class="node">
<title>app/shared/components/CrudCardHeader/index.tsx</title>
<path fill="none" stroke="#c6c5fe" d="M339.83,-597C339.83,-597 14.17,-597 14.17,-597 10.33,-597 6.5,-593.17 6.5,-589.33 6.5,-589.33 6.5,-581.67 6.5,-581.67 6.5,-577.83 10.33,-574 14.17,-574 14.17,-574 339.83,-574 339.83,-574 343.67,-574 347.5,-577.83 347.5,-581.67 347.5,-581.67 347.5,-589.33 347.5,-589.33 347.5,-593.17 343.67,-597 339.83,-597"/>
<text text-anchor="middle" x="177" y="-581.8" font-family="Arial" font-size="14.00" fill="#c6c5fe">app/shared/components/CrudCardHeader/index.tsx</text>
</g>
<!-- app/shared/components/CrudCardHeader/styles.module.css -->
<g id="node26" class="node">
<title>app/shared/components/CrudCardHeader/styles.module.css</title>
<path fill="none" stroke="#cfffac" d="M788.83,-597C788.83,-597 404.17,-597 404.17,-597 400.33,-597 396.5,-593.17 396.5,-589.33 396.5,-589.33 396.5,-581.67 396.5,-581.67 396.5,-577.83 400.33,-574 404.17,-574 404.17,-574 788.83,-574 788.83,-574 792.67,-574 796.5,-577.83 796.5,-581.67 796.5,-581.67 796.5,-589.33 796.5,-589.33 796.5,-593.17 792.67,-597 788.83,-597"/>
<text text-anchor="middle" x="596.5" y="-581.8" font-family="Arial" font-size="14.00" fill="#cfffac">app/shared/components/CrudCardHeader/styles.module.css</text>
</g>
<!-- app/shared/components/CrudCardHeader/index.tsx&#45;&gt;app/shared/components/CrudCardHeader/styles.module.css -->
<g id="edge29" class="edge">
<title>app/shared/components/CrudCardHeader/index.tsx&#45;&gt;app/shared/components/CrudCardHeader/styles.module.css</title>
<path fill="none" stroke="#757575" d="M347.51,-585.5C360.17,-585.5 373.02,-585.5 385.88,-585.5"/>
<polygon fill="#757575" stroke="#757575" points="386.19,-589 396.19,-585.5 386.19,-582 386.19,-589"/>
</g>
<!-- app/shared/components/DetailsCardHeader/index.tsx -->
<g id="node27" class="node">
<title>app/shared/components/DetailsCardHeader/index.tsx</title>
<path fill="none" stroke="#c6c5fe" d="M346.33,-638C346.33,-638 7.67,-638 7.67,-638 3.83,-638 0,-634.17 0,-630.33 0,-630.33 0,-622.67 0,-622.67 0,-618.83 3.83,-615 7.67,-615 7.67,-615 346.33,-615 346.33,-615 350.17,-615 354,-618.83 354,-622.67 354,-622.67 354,-630.33 354,-630.33 354,-634.17 350.17,-638 346.33,-638"/>
<text text-anchor="middle" x="177" y="-622.8" font-family="Arial" font-size="14.00" fill="#c6c5fe">app/shared/components/DetailsCardHeader/index.tsx</text>
</g>
<!-- app/shared/components/DetailsCardHeader/styles.module.css -->
<g id="node28" class="node">
<title>app/shared/components/DetailsCardHeader/styles.module.css</title>
<path fill="none" stroke="#cfffac" d="M795.33,-638C795.33,-638 397.67,-638 397.67,-638 393.83,-638 390,-634.17 390,-630.33 390,-630.33 390,-622.67 390,-622.67 390,-618.83 393.83,-615 397.67,-615 397.67,-615 795.33,-615 795.33,-615 799.17,-615 803,-618.83 803,-622.67 803,-622.67 803,-630.33 803,-630.33 803,-634.17 799.17,-638 795.33,-638"/>
<text text-anchor="middle" x="596.5" y="-622.8" font-family="Arial" font-size="14.00" fill="#cfffac">app/shared/components/DetailsCardHeader/styles.module.css</text>
</g>
<!-- app/shared/components/DetailsCardHeader/index.tsx&#45;&gt;app/shared/components/DetailsCardHeader/styles.module.css -->
<g id="edge30" class="edge">
<title>app/shared/components/DetailsCardHeader/index.tsx&#45;&gt;app/shared/components/DetailsCardHeader/styles.module.css</title>
<path fill="none" stroke="#757575" d="M354.15,-626.5C362.63,-626.5 371.19,-626.5 379.76,-626.5"/>
<polygon fill="#757575" stroke="#757575" points="379.83,-630 389.83,-626.5 379.83,-623 379.83,-630"/>
</g>
<!-- app/shared/components/FilterContainer/index.tsx -->
<g id="node29" class="node">
<title>app/shared/components/FilterContainer/index.tsx</title>
<path fill="none" stroke="#c6c5fe" d="M332.33,-679C332.33,-679 21.67,-679 21.67,-679 17.83,-679 14,-675.17 14,-671.33 14,-671.33 14,-663.67 14,-663.67 14,-659.83 17.83,-656 21.67,-656 21.67,-656 332.33,-656 332.33,-656 336.17,-656 340,-659.83 340,-663.67 340,-663.67 340,-671.33 340,-671.33 340,-675.17 336.17,-679 332.33,-679"/>
<text text-anchor="middle" x="177" y="-663.8" font-family="Arial" font-size="14.00" fill="#c6c5fe">app/shared/components/FilterContainer/index.tsx</text>
</g>
<!-- app/shared/components/FilterContainer/styles.module.css -->
<g id="node30" class="node">
<title>app/shared/components/FilterContainer/styles.module.css</title>
<path fill="none" stroke="#cfffac" d="M780.83,-679C780.83,-679 412.17,-679 412.17,-679 408.33,-679 404.5,-675.17 404.5,-671.33 404.5,-671.33 404.5,-663.67 404.5,-663.67 404.5,-659.83 408.33,-656 412.17,-656 412.17,-656 780.83,-656 780.83,-656 784.67,-656 788.5,-659.83 788.5,-663.67 788.5,-663.67 788.5,-671.33 788.5,-671.33 788.5,-675.17 784.67,-679 780.83,-679"/>
<text text-anchor="middle" x="596.5" y="-663.8" font-family="Arial" font-size="14.00" fill="#cfffac">app/shared/components/FilterContainer/styles.module.css</text>
</g>
<!-- app/shared/components/FilterContainer/index.tsx&#45;&gt;app/shared/components/FilterContainer/styles.module.css -->
<g id="edge31" class="edge">
<title>app/shared/components/FilterContainer/index.tsx&#45;&gt;app/shared/components/FilterContainer/styles.module.css</title>
<path fill="none" stroke="#757575" d="M340.01,-667.5C357.81,-667.5 376.08,-667.5 394.27,-667.5"/>
<polygon fill="#757575" stroke="#757575" points="394.37,-671 404.37,-667.5 394.37,-664 394.37,-671"/>
</g>
<!-- app/shared/components/Header/index.tsx -->
<g id="node31" class="node">
<title>app/shared/components/Header/index.tsx</title>
<path fill="none" stroke="#cfffac" d="M309.33,-720C309.33,-720 44.67,-720 44.67,-720 40.83,-720 37,-716.17 37,-712.33 37,-712.33 37,-704.67 37,-704.67 37,-700.83 40.83,-697 44.67,-697 44.67,-697 309.33,-697 309.33,-697 313.17,-697 317,-700.83 317,-704.67 317,-704.67 317,-712.33 317,-712.33 317,-716.17 313.17,-720 309.33,-720"/>
<text text-anchor="middle" x="177" y="-704.8" font-family="Arial" font-size="14.00" fill="#cfffac">app/shared/components/Header/index.tsx</text>
</g>
<!-- app/shared/components/InputSelect/index.tsx -->
<g id="node32" class="node">
<title>app/shared/components/InputSelect/index.tsx</title>
<path fill="none" stroke="#c6c5fe" d="M321.83,-761C321.83,-761 32.17,-761 32.17,-761 28.33,-761 24.5,-757.17 24.5,-753.33 24.5,-753.33 24.5,-745.67 24.5,-745.67 24.5,-741.83 28.33,-738 32.17,-738 32.17,-738 321.83,-738 321.83,-738 325.67,-738 329.5,-741.83 329.5,-745.67 329.5,-745.67 329.5,-753.33 329.5,-753.33 329.5,-757.17 325.67,-761 321.83,-761"/>
<text text-anchor="middle" x="177" y="-745.8" font-family="Arial" font-size="14.00" fill="#c6c5fe">app/shared/components/InputSelect/index.tsx</text>
</g>
<!-- app/shared/components/InputSelect/styles.module.css -->
<g id="node33" class="node">
<title>app/shared/components/InputSelect/styles.module.css</title>
<path fill="none" stroke="#cfffac" d="M770.83,-761C770.83,-761 422.17,-761 422.17,-761 418.33,-761 414.5,-757.17 414.5,-753.33 414.5,-753.33 414.5,-745.67 414.5,-745.67 414.5,-741.83 418.33,-738 422.17,-738 422.17,-738 770.83,-738 770.83,-738 774.67,-738 778.5,-741.83 778.5,-745.67 778.5,-745.67 778.5,-753.33 778.5,-753.33 778.5,-757.17 774.67,-761 770.83,-761"/>
<text text-anchor="middle" x="596.5" y="-745.8" font-family="Arial" font-size="14.00" fill="#cfffac">app/shared/components/InputSelect/styles.module.css</text>
</g>
<!-- app/shared/components/InputSelect/index.tsx&#45;&gt;app/shared/components/InputSelect/styles.module.css -->
<g id="edge32" class="edge">
<title>app/shared/components/InputSelect/index.tsx&#45;&gt;app/shared/components/InputSelect/styles.module.css</title>
<path fill="none" stroke="#757575" d="M329.61,-749.5C353.8,-749.5 379.1,-749.5 404.07,-749.5"/>
<polygon fill="#757575" stroke="#757575" points="404.37,-753 414.37,-749.5 404.37,-746 404.37,-753"/>
</g>
<!-- app/shared/components/InputText/index.tsx -->
<g id="node34" class="node">
<title>app/shared/components/InputText/index.tsx</title>
<path fill="none" stroke="#c6c5fe" d="M315.83,-802C315.83,-802 38.17,-802 38.17,-802 34.33,-802 30.5,-798.17 30.5,-794.33 30.5,-794.33 30.5,-786.67 30.5,-786.67 30.5,-782.83 34.33,-779 38.17,-779 38.17,-779 315.83,-779 315.83,-779 319.67,-779 323.5,-782.83 323.5,-786.67 323.5,-786.67 323.5,-794.33 323.5,-794.33 323.5,-798.17 319.67,-802 315.83,-802"/>
<text text-anchor="middle" x="177" y="-786.8" font-family="Arial" font-size="14.00" fill="#c6c5fe">app/shared/components/InputText/index.tsx</text>
</g>
<!-- app/shared/components/InputText/styles.module.css -->
<g id="node35" class="node">
<title>app/shared/components/InputText/styles.module.css</title>
<path fill="none" stroke="#cfffac" d="M764.33,-802C764.33,-802 428.67,-802 428.67,-802 424.83,-802 421,-798.17 421,-794.33 421,-794.33 421,-786.67 421,-786.67 421,-782.83 424.83,-779 428.67,-779 428.67,-779 764.33,-779 764.33,-779 768.17,-779 772,-782.83 772,-786.67 772,-786.67 772,-794.33 772,-794.33 772,-798.17 768.17,-802 764.33,-802"/>
<text text-anchor="middle" x="596.5" y="-786.8" font-family="Arial" font-size="14.00" fill="#cfffac">app/shared/components/InputText/styles.module.css</text>
</g>
<!-- app/shared/components/InputText/index.tsx&#45;&gt;app/shared/components/InputText/styles.module.css -->
<g id="edge33" class="edge">
<title>app/shared/components/InputText/index.tsx&#45;&gt;app/shared/components/InputText/styles.module.css</title>
<path fill="none" stroke="#757575" d="M323.73,-790.5C351.72,-790.5 381.37,-790.5 410.41,-790.5"/>
<polygon fill="#757575" stroke="#757575" points="410.65,-794 420.65,-790.5 410.65,-787 410.65,-794"/>
</g>
<!-- app/shared/components/Pagination/index.tsx -->
<g id="node36" class="node">
<title>app/shared/components/Pagination/index.tsx</title>
<path fill="none" stroke="#c6c5fe" d="M318.83,-843C318.83,-843 35.17,-843 35.17,-843 31.33,-843 27.5,-839.17 27.5,-835.33 27.5,-835.33 27.5,-827.67 27.5,-827.67 27.5,-823.83 31.33,-820 35.17,-820 35.17,-820 318.83,-820 318.83,-820 322.67,-820 326.5,-823.83 326.5,-827.67 326.5,-827.67 326.5,-835.33 326.5,-835.33 326.5,-839.17 322.67,-843 318.83,-843"/>
<text text-anchor="middle" x="177" y="-827.8" font-family="Arial" font-size="14.00" fill="#c6c5fe">app/shared/components/Pagination/index.tsx</text>
</g>
<!-- app/shared/components/Pagination/styles.module.css -->
<g id="node37" class="node">
<title>app/shared/components/Pagination/styles.module.css</title>
<path fill="none" stroke="#cfffac" d="M767.83,-843C767.83,-843 425.17,-843 425.17,-843 421.33,-843 417.5,-839.17 417.5,-835.33 417.5,-835.33 417.5,-827.67 417.5,-827.67 417.5,-823.83 421.33,-820 425.17,-820 425.17,-820 767.83,-820 767.83,-820 771.67,-820 775.5,-823.83 775.5,-827.67 775.5,-827.67 775.5,-835.33 775.5,-835.33 775.5,-839.17 771.67,-843 767.83,-843"/>
<text text-anchor="middle" x="596.5" y="-827.8" font-family="Arial" font-size="14.00" fill="#cfffac">app/shared/components/Pagination/styles.module.css</text>
</g>
<!-- app/shared/components/Pagination/index.tsx&#45;&gt;app/shared/components/Pagination/styles.module.css -->
<g id="edge34" class="edge">
<title>app/shared/components/Pagination/index.tsx&#45;&gt;app/shared/components/Pagination/styles.module.css</title>
<path fill="none" stroke="#757575" d="M326.66,-831.5C352.74,-831.5 380.17,-831.5 407.15,-831.5"/>
<polygon fill="#757575" stroke="#757575" points="407.47,-835 417.47,-831.5 407.47,-828 407.47,-835"/>
</g>
<!-- app/shared/components/ProfileOverview/index.tsx -->
<g id="node38" class="node">
<title>app/shared/components/ProfileOverview/index.tsx</title>
<path fill="none" stroke="#cfffac" d="M335.83,-884C335.83,-884 18.17,-884 18.17,-884 14.33,-884 10.5,-880.17 10.5,-876.33 10.5,-876.33 10.5,-868.67 10.5,-868.67 10.5,-864.83 14.33,-861 18.17,-861 18.17,-861 335.83,-861 335.83,-861 339.67,-861 343.5,-864.83 343.5,-868.67 343.5,-868.67 343.5,-876.33 343.5,-876.33 343.5,-880.17 339.67,-884 335.83,-884"/>
<text text-anchor="middle" x="177" y="-868.8" font-family="Arial" font-size="14.00" fill="#cfffac">app/shared/components/ProfileOverview/index.tsx</text>
</g>
<!-- app/shared/components/RecentPost/index.tsx -->
<g id="node39" class="node">
<title>app/shared/components/RecentPost/index.tsx</title>
<path fill="none" stroke="#cfffac" d="M323.33,-925C323.33,-925 30.67,-925 30.67,-925 26.83,-925 23,-921.17 23,-917.33 23,-917.33 23,-909.67 23,-909.67 23,-905.83 26.83,-902 30.67,-902 30.67,-902 323.33,-902 323.33,-902 327.17,-902 331,-905.83 331,-909.67 331,-909.67 331,-917.33 331,-917.33 331,-921.17 327.17,-925 323.33,-925"/>
<text text-anchor="middle" x="177" y="-909.8" font-family="Arial" font-size="14.00" fill="#cfffac">app/shared/components/RecentPost/index.tsx</text>
</g>
<!-- app/shared/context/AuthProvider/index.tsx -->
<g id="node40" class="node">
<title>app/shared/context/AuthProvider/index.tsx</title>
<path fill="none" stroke="#c6c5fe" d="M310.33,-966C310.33,-966 43.67,-966 43.67,-966 39.83,-966 36,-962.17 36,-958.33 36,-958.33 36,-950.67 36,-950.67 36,-946.83 39.83,-943 43.67,-943 43.67,-943 310.33,-943 310.33,-943 314.17,-943 318,-946.83 318,-950.67 318,-950.67 318,-958.33 318,-958.33 318,-962.17 314.17,-966 310.33,-966"/>
<text text-anchor="middle" x="177" y="-950.8" font-family="Arial" font-size="14.00" fill="#c6c5fe">app/shared/context/AuthProvider/index.tsx</text>
</g>
<!-- app/shared/context/AuthProvider/types.ts -->
<g id="node41" class="node">
<title>app/shared/context/AuthProvider/types.ts</title>
<path fill="none" stroke="#cfffac" d="M1107.33,-966C1107.33,-966 846.67,-966 846.67,-966 842.83,-966 839,-962.17 839,-958.33 839,-958.33 839,-950.67 839,-950.67 839,-946.83 842.83,-943 846.67,-943 846.67,-943 1107.33,-943 1107.33,-943 1111.17,-943 1115,-946.83 1115,-950.67 1115,-950.67 1115,-958.33 1115,-958.33 1115,-962.17 1111.17,-966 1107.33,-966"/>
<text text-anchor="middle" x="977" y="-950.8" font-family="Arial" font-size="14.00" fill="#cfffac">app/shared/context/AuthProvider/types.ts</text>
</g>
<!-- app/shared/context/AuthProvider/index.tsx&#45;&gt;app/shared/context/AuthProvider/types.ts -->
<g id="edge35" class="edge">
<title>app/shared/context/AuthProvider/index.tsx&#45;&gt;app/shared/context/AuthProvider/types.ts</title>
<path fill="none" stroke="#757575" d="M318.37,-954.5C461.51,-954.5 682.69,-954.5 828.39,-954.5"/>
<polygon fill="#757575" stroke="#757575" points="828.75,-958 838.75,-954.5 828.75,-951 828.75,-958"/>
</g>
<!-- app/shared/context/AuthProvider/util.ts -->
<g id="node42" class="node">
<title>app/shared/context/AuthProvider/util.ts</title>
<path fill="none" stroke="#c6c5fe" d="M718.33,-926C718.33,-926 474.67,-926 474.67,-926 470.83,-926 467,-922.17 467,-918.33 467,-918.33 467,-910.67 467,-910.67 467,-906.83 470.83,-903 474.67,-903 474.67,-903 718.33,-903 718.33,-903 722.17,-903 726,-906.83 726,-910.67 726,-910.67 726,-918.33 726,-918.33 726,-922.17 722.17,-926 718.33,-926"/>
<text text-anchor="middle" x="596.5" y="-910.8" font-family="Arial" font-size="14.00" fill="#c6c5fe">app/shared/context/AuthProvider/util.ts</text>
</g>
<!-- app/shared/context/AuthProvider/index.tsx&#45;&gt;app/shared/context/AuthProvider/util.ts -->
<g id="edge36" class="edge">
<title>app/shared/context/AuthProvider/index.tsx&#45;&gt;app/shared/context/AuthProvider/util.ts</title>
<path fill="none" stroke="#757575" d="M298.2,-942.98C350.48,-937.98 411.85,-932.1 465.21,-926.98"/>
<polygon fill="#757575" stroke="#757575" points="465.81,-930.44 475.43,-926 465.14,-923.47 465.81,-930.44"/>
</g>
<!-- app/shared/context/AuthProvider/util.ts&#45;&gt;app/shared/context/AuthProvider/types.ts -->
<g id="edge37" class="edge">
<title>app/shared/context/AuthProvider/util.ts&#45;&gt;app/shared/context/AuthProvider/types.ts</title>
<path fill="none" stroke="#757575" d="M706.47,-926.02C753.57,-930.99 808.81,-936.83 856.98,-941.92"/>
<polygon fill="#757575" stroke="#757575" points="856.83,-945.43 867.14,-943 857.57,-938.46 856.83,-945.43"/>
</g>
<!-- app/shared/services/api.ts -->
<g id="node43" class="node">
<title>app/shared/services/api.ts</title>
<path fill="none" stroke="#cfffac" d="M1060.33,-925C1060.33,-925 893.67,-925 893.67,-925 889.83,-925 886,-921.17 886,-917.33 886,-917.33 886,-909.67 886,-909.67 886,-905.83 889.83,-902 893.67,-902 893.67,-902 1060.33,-902 1060.33,-902 1064.17,-902 1068,-905.83 1068,-909.67 1068,-909.67 1068,-917.33 1068,-917.33 1068,-921.17 1064.17,-925 1060.33,-925"/>
<text text-anchor="middle" x="977" y="-909.8" font-family="Arial" font-size="14.00" fill="#cfffac">app/shared/services/api.ts</text>
</g>
<!-- app/shared/context/AuthProvider/util.ts&#45;&gt;app/shared/services/api.ts -->
<g id="edge38" class="edge">
<title>app/shared/context/AuthProvider/util.ts&#45;&gt;app/shared/services/api.ts</title>
<path fill="none" stroke="#757575" d="M726.17,-914.16C774.99,-914.03 829.81,-913.89 875.64,-913.77"/>
<polygon fill="#757575" stroke="#757575" points="875.89,-917.26 885.88,-913.74 875.87,-910.26 875.89,-917.26"/>
</g>
<!-- app/shared/context/ProtectedLayout/index.tsx -->
<g id="node44" class="node">
<title>app/shared/context/ProtectedLayout/index.tsx</title>
<path fill="none" stroke="#c6c5fe" d="M741.33,-187C741.33,-187 451.67,-187 451.67,-187 447.83,-187 444,-183.17 444,-179.33 444,-179.33 444,-171.67 444,-171.67 444,-167.83 447.83,-164 451.67,-164 451.67,-164 741.33,-164 741.33,-164 745.17,-164 749,-167.83 749,-171.67 749,-171.67 749,-179.33 749,-179.33 749,-183.17 745.17,-187 741.33,-187"/>
<text text-anchor="middle" x="596.5" y="-171.8" font-family="Arial" font-size="14.00" fill="#c6c5fe">app/shared/context/ProtectedLayout/index.tsx</text>
</g>
<!-- app/shared/context/ProtectedLayout/index.tsx&#45;&gt;app/shared/hooks/useAuth.tsx -->
<g id="edge39" class="edge">
<title>app/shared/context/ProtectedLayout/index.tsx&#45;&gt;app/shared/hooks/useAuth.tsx</title>
<path fill="none" stroke="#757575" d="M749.27,-175.5C787.18,-175.5 827.17,-175.5 862.84,-175.5"/>
<polygon fill="#757575" stroke="#757575" points="863.27,-179 873.27,-175.5 863.27,-172 863.27,-179"/>
</g>
<!-- i18n/index.tsx -->
<g id="node45" class="node">
<title>i18n/index.tsx</title>
<path fill="none" stroke="#c6c5fe" d="M220.83,-1007C220.83,-1007 133.17,-1007 133.17,-1007 129.33,-1007 125.5,-1003.17 125.5,-999.33 125.5,-999.33 125.5,-991.67 125.5,-991.67 125.5,-987.83 129.33,-984 133.17,-984 133.17,-984 220.83,-984 220.83,-984 224.67,-984 228.5,-987.83 228.5,-991.67 228.5,-991.67 228.5,-999.33 228.5,-999.33 228.5,-1003.17 224.67,-1007 220.83,-1007"/>
<text text-anchor="middle" x="177" y="-991.8" font-family="Arial" font-size="14.00" fill="#c6c5fe">i18n/index.tsx</text>
</g>
<!-- i18n/locales/es/es&#45;es.json -->
<g id="node46" class="node">
<title>i18n/locales/es/es&#45;es.json</title>
<path fill="none" stroke="#cfffac" d="M679.83,-1048C679.83,-1048 513.17,-1048 513.17,-1048 509.33,-1048 505.5,-1044.17 505.5,-1040.33 505.5,-1040.33 505.5,-1032.67 505.5,-1032.67 505.5,-1028.83 509.33,-1025 513.17,-1025 513.17,-1025 679.83,-1025 679.83,-1025 683.67,-1025 687.5,-1028.83 687.5,-1032.67 687.5,-1032.67 687.5,-1040.33 687.5,-1040.33 687.5,-1044.17 683.67,-1048 679.83,-1048"/>
<text text-anchor="middle" x="596.5" y="-1032.8" font-family="Arial" font-size="14.00" fill="#cfffac">i18n/locales/es/es&#45;es.json</text>
</g>
<!-- i18n/index.tsx&#45;&gt;i18n/locales/es/es&#45;es.json -->
<g id="edge40" class="edge">
<title>i18n/index.tsx&#45;&gt;i18n/locales/es/es&#45;es.json</title>
<path fill="none" stroke="#757575" d="M228.54,-1000.53C271.49,-1004.8 334.79,-1011.08 390,-1016.5 424.27,-1019.86 461.76,-1023.52 495.22,-1026.78"/>
<polygon fill="#757575" stroke="#757575" points="495.18,-1030.29 505.47,-1027.77 495.85,-1023.32 495.18,-1030.29"/>
</g>
<!-- i18n/locales/pt/pt&#45;br.json -->
<g id="node47" class="node">
<title>i18n/locales/pt/pt&#45;br.json</title>
<path fill="none" stroke="#cfffac" d="M674.33,-1007C674.33,-1007 518.67,-1007 518.67,-1007 514.83,-1007 511,-1003.17 511,-999.33 511,-999.33 511,-991.67 511,-991.67 511,-987.83 514.83,-984 518.67,-984 518.67,-984 674.33,-984 674.33,-984 678.17,-984 682,-987.83 682,-991.67 682,-991.67 682,-999.33 682,-999.33 682,-1003.17 678.17,-1007 674.33,-1007"/>
<text text-anchor="middle" x="596.5" y="-991.8" font-family="Arial" font-size="14.00" fill="#cfffac">i18n/locales/pt/pt&#45;br.json</text>
</g>
<!-- i18n/index.tsx&#45;&gt;i18n/locales/pt/pt&#45;br.json -->
<g id="edge41" class="edge">
<title>i18n/index.tsx&#45;&gt;i18n/locales/pt/pt&#45;br.json</title>
<path fill="none" stroke="#757575" d="M228.78,-995.5C296.12,-995.5 416.3,-995.5 500.67,-995.5"/>
<polygon fill="#757575" stroke="#757575" points="500.78,-999 510.78,-995.5 500.78,-992 500.78,-999"/>
</g>
<!-- index.css -->
<g id="node48" class="node">
<title>index.css</title>
<path fill="none" stroke="#cfffac" d="M627.33,-23C627.33,-23 565.67,-23 565.67,-23 561.83,-23 558,-19.17 558,-15.33 558,-15.33 558,-7.67 558,-7.67 558,-3.83 561.83,0 565.67,0 565.67,0 627.33,0 627.33,0 631.17,0 635,-3.83 635,-7.67 635,-7.67 635,-15.33 635,-15.33 635,-19.17 631.17,-23 627.33,-23"/>
<text text-anchor="middle" x="596.5" y="-7.8" font-family="Arial" font-size="14.00" fill="#cfffac">index.css</text>
</g>
<!-- main.tsx -->
<g id="node49" class="node">
<title>main.tsx</title>
<path fill="none" stroke="#c6c5fe" d="M203.33,-44C203.33,-44 150.67,-44 150.67,-44 146.83,-44 143,-40.17 143,-36.33 143,-36.33 143,-28.67 143,-28.67 143,-24.83 146.83,-21 150.67,-21 150.67,-21 203.33,-21 203.33,-21 207.17,-21 211,-24.83 211,-28.67 211,-28.67 211,-36.33 211,-36.33 211,-40.17 207.17,-44 203.33,-44"/>
<text text-anchor="middle" x="177" y="-28.8" font-family="Arial" font-size="14.00" fill="#c6c5fe">main.tsx</text>
</g>
<!-- main.tsx&#45;&gt;app/App.tsx -->
<g id="edge42" class="edge">
<title>main.tsx&#45;&gt;app/App.tsx</title>
<path fill="none" stroke="#757575" d="M211.11,-34.09C282.63,-37.51 452.18,-45.63 540.25,-49.85"/>
<polygon fill="#757575" stroke="#757575" points="540.16,-53.35 550.32,-50.34 540.5,-46.36 540.16,-53.35"/>
</g>
<!-- main.tsx&#45;&gt;index.css -->
<g id="edge43" class="edge">
<title>main.tsx&#45;&gt;index.css</title>
<path fill="none" stroke="#757575" d="M211.11,-30.83C284.7,-27.13 462.11,-18.21 547.71,-13.9"/>
<polygon fill="#757575" stroke="#757575" points="548.12,-17.39 557.93,-13.39 547.77,-10.4 548.12,-17.39"/>
</g>
<!-- vite&#45;env.d.ts -->
<g id="node50" class="node">
<title>vite&#45;env.d.ts</title>
<path fill="none" stroke="#cfffac" d="M215.33,-1048C215.33,-1048 138.67,-1048 138.67,-1048 134.83,-1048 131,-1044.17 131,-1040.33 131,-1040.33 131,-1032.67 131,-1032.67 131,-1028.83 134.83,-1025 138.67,-1025 138.67,-1025 215.33,-1025 215.33,-1025 219.17,-1025 223,-1028.83 223,-1032.67 223,-1032.67 223,-1040.33 223,-1040.33 223,-1044.17 219.17,-1048 215.33,-1048"/>
<text text-anchor="middle" x="177" y="-1032.8" font-family="Arial" font-size="14.00" fill="#cfffac">vite&#45;env.d.ts</text>
</g>
</g>
</svg>
